<?xml version="1.0" encoding="UTF-8" standalone="no"?>
<!-- Generator: Adobe Illustrator 23.0.2, SVG Export Plug-In . SVG Version: 6.00 Build 0)  -->

<svg
   version="1.1"
   id="Ebene_1"
   x="0px"
   y="0px"
   viewBox="0 0 149.99999 150"
   xml:space="preserve"
   sodipodi:docname="Banane_2b-try.svg"
   width="150"
   height="150"
   inkscape:version="1.2.1 (9c6d41e410, 2022-07-14)"
   xmlns:inkscape="http://www.inkscape.org/namespaces/inkscape"
   xmlns:sodipodi="http://sodipodi.sourceforge.net/DTD/sodipodi-0.dtd"
   xmlns="http://www.w3.org/2000/svg"
   xmlns:svg="http://www.w3.org/2000/svg"
   xmlns:i="&amp;ns_ai;"><defs
   id="defs2326" /><sodipodi:namedview
   id="namedview2324"
   pagecolor="#ffffff"
   bordercolor="#111111"
   borderopacity="1"
   inkscape:showpageshadow="0"
   inkscape:pageopacity="0"
   inkscape:pagecheckerboard="1"
   inkscape:deskcolor="#d1d1d1"
   showgrid="false"
   inkscape:zoom="3.9767665"
   inkscape:cx="67.391435"
   inkscape:cy="68.900198"
   inkscape:window-width="1920"
   inkscape:window-height="1017"
   inkscape:window-x="1912"
   inkscape:window-y="-5"
   inkscape:window-maximized="1"
   inkscape:current-layer="Ebene_1" />
<style
   type="text/css"
   id="style2219">
	.st0{fill:#020203;}
	.st1{fill:#F1F9FD;}
	.st2{fill:#C7E7F5;}
	.st3{fill:#C26D15;}
	.st4{fill:#FAB42A;}
	.st5{fill:#FFFFFF;}
	.st6{fill:#FFD63E;}
</style>
<switch
   id="switch2321"
   transform="matrix(5.7081043,0,0,5.7081043,-1789.7616,-2427.9321)">
	<foreignObject
   requiredExtensions="http://ns.adobe.com/AdobeIllustrator/10.0/"
   x="0"
   y="0"
   width="1"
   height="1">
		
	</foreignObject>
	<g
   i:extraneous="self"
   id="g2319">
		<g
   id="g2239">
			<path
   class="st0"
   d="m 325.61,437.86 c 0.28,-1.71 0.45,-3.52 0.25,-5.25 -0.01,-0.1 -0.18,-0.1 -0.2,0 -0.44,2.54 -0.04,5.42 -1.3,7.77 -0.58,1.08 -1.69,1.71 -2.85,2 -1.58,0.4 -3.06,-0.02 -4.55,-0.46 -0.01,0.03 -0.02,0.07 -0.03,0.1 -0.07,0.39 1.15,0.64 1.36,0.69 0.75,0.18 1.5,0.27 2.27,0.24 1.28,-0.04 2.54,-0.52 3.48,-1.4 1.03,-0.94 1.36,-2.37 1.57,-3.69 z"
   id="path2221" />
			<g
   id="g2237">
				<path
   class="st1"
   d="m 317.22,442.91 c 0.13,-0.22 0.17,-0.42 0.16,-0.68 -0.01,-0.18 0.01,-0.37 -0.03,-0.54 0,-0.02 0.01,-0.03 0.01,-0.05 0,-0.12 -0.05,-0.23 -0.12,-0.32 -0.11,-0.16 -0.29,-0.27 -0.46,-0.35 -0.1,-0.05 -0.2,-0.08 -0.3,-0.07 -0.01,-0.02 -0.02,-0.05 -0.03,-0.07 0.06,-0.36 0.06,-0.69 0.21,-1.03 0.1,-0.22 0.21,-0.43 0.26,-0.67 0.09,-0.39 -0.13,-0.72 -0.51,-0.78 -0.42,-0.07 -0.79,0.55 -0.93,0.85 -0.14,0.32 -0.16,0.71 -0.09,1.08 -0.02,0.08 -0.03,0.17 -0.04,0.24 -0.01,0.06 -0.01,0.12 -0.01,0.17 -0.03,-0.01 -0.06,-0.02 -0.08,-0.02 -0.29,-0.09 -0.57,-0.11 -0.87,0 -0.27,0.1 -0.54,0.38 -0.53,0.68 0,0.22 0.16,0.33 0.35,0.37 l -0.26,0.23 c -0.01,0.05 -0.01,0.09 0,0.14 0.01,0.1 0.04,0.17 0.09,0.23 0.01,0.04 0.03,0.08 0.05,0.12 0.07,0.11 0.15,0.17 0.24,0.2 -0.23,0.34 -0.04,0.93 0.53,0.82 0.03,0 0.05,-0.01 0.08,-0.02 0.01,0.01 0.01,0.02 0.02,0.03 0.16,0.18 0.36,0.14 0.54,0.03 0.02,-0.02 0.05,-0.03 0.07,-0.05 0.13,-0.02 0.26,-0.06 0.37,-0.12 0.16,-0.08 0.31,-0.18 0.45,-0.3 0.09,0.09 0.21,0.14 0.36,0.11 0.02,-0.01 0.04,-0.02 0.07,-0.03 0.07,0 0.12,-0.01 0.04,0 0.13,-0.03 0.3,-0.09 0.36,-0.2 z"
   id="path2223" />
				<path
   class="st2"
   d="m 316.36,442.64 c -0.13,0 -0.25,0.05 -0.35,0.11 0.02,-0.12 0,-0.24 -0.08,-0.37 -0.01,-0.02 -0.02,-0.03 -0.03,-0.05 0.03,-0.03 0.05,-0.06 0.08,-0.08 0.04,-0.03 0.07,-0.08 0.08,-0.12 0.03,-0.11 0.03,-0.2 0,-0.31 -0.03,-0.11 -0.07,-0.22 -0.13,-0.32 -0.02,-0.04 -0.05,-0.08 -0.08,-0.1 0.06,-0.06 0.11,-0.13 0.13,-0.19 0.05,-0.12 0.01,-0.27 -0.03,-0.38 -0.04,-0.13 -0.11,-0.29 -0.21,-0.39 0,-0.09 -0.02,-0.18 -0.03,-0.28 -0.01,-0.26 0.06,-0.53 0.18,-0.76 0.11,-0.21 0.2,-0.4 0.43,-0.5 0.2,-0.08 0.27,0 0.44,-0.13 0.05,-0.04 0.05,-0.14 0,-0.18 -0.32,-0.29 -0.89,-0.08 -1.07,0.29 -0.27,0.54 -0.38,0.95 -0.28,1.49 -0.05,0.04 -0.07,0.11 -0.03,0.16 0.09,0.13 0.19,0.23 0.25,0.38 0.04,0.11 0.08,0.27 -0.03,0.35 -0.06,0.04 -0.07,0.1 -0.07,0.15 -0.03,0.03 -0.04,0.07 -0.02,0.11 -0.01,0 -0.02,-0.01 -0.03,-0.01 -0.12,-0.03 -0.25,0 -0.38,-0.01 -0.11,0 -0.22,0 -0.33,0.02 -0.26,0.05 -0.37,0.19 -0.58,0.32 -0.1,0.06 0.04,0.17 0.11,0.14 0.11,-0.04 0.22,-0.1 0.33,-0.13 0.1,-0.03 0.23,-0.02 0.34,-0.03 0.19,0 0.33,0.02 0.51,-0.06 0.05,-0.02 0.08,-0.07 0.08,-0.13 0.01,0.02 0.02,0.03 0.02,0.05 0.01,0.03 0.05,0.06 0.08,0.07 0,0.01 0,0.01 0.01,0.02 0.02,0.05 0.03,0.1 0.04,0.15 0,0.02 -0.04,0.05 -0.07,0.08 l 0.03,-0.04 c 0,0 -0.01,0.01 -0.02,0.01 -0.05,0.04 -0.07,0.09 -0.07,0.15 -0.07,-0.01 -0.14,0 -0.21,0.05 -0.03,0.02 -0.04,0.05 -0.05,0.07 -0.05,-0.03 -0.12,-0.04 -0.17,0.01 -0.06,0.08 -0.1,0.16 -0.18,0.21 -0.14,0.11 -0.4,0.24 -0.59,0.2 -0.09,-0.01 -0.07,0.13 -0.02,0.16 0.23,0.15 0.51,0.07 0.74,-0.05 0.15,-0.08 0.31,-0.2 0.31,-0.36 0.05,0.03 0.11,0.04 0.16,0.03 -0.01,0.1 -0.02,0.2 -0.08,0.29 -0.05,0.08 -0.11,0.16 -0.16,0.24 0,0 0,0 0,0 -0.04,0.04 -0.08,0.07 -0.12,0.09 -0.17,0.08 -0.3,0.37 -0.1,0.5 0.23,0.15 0.42,0.04 0.56,-0.15 0.1,-0.08 0.2,-0.16 0.3,-0.23 0.14,-0.12 0.29,-0.17 0.45,-0.24 0.25,-0.03 0.12,-0.3 -0.06,-0.3 z"
   id="path2225" />
				<path
   class="st2"
   d="m 317.23,441.79 c 0.04,-0.14 0.03,-0.34 -0.11,-0.43 -0.24,-0.16 -0.48,0.04 -0.55,0.27 -0.04,0.12 -0.04,0.25 -0.05,0.37 0,-0.03 0,0 -0.01,0.03 0,0 0,0 -0.01,0 -0.13,0.17 -0.1,0.48 0.12,0.56 0.42,0.17 0.54,-0.53 0.61,-0.8 z"
   id="path2227" />
				<g
   id="g2231">
					<path
   class="st2"
   d="m 315.08,440.56 c 0,0 -0.01,0 0,0 -0.01,0 -0.01,0 0,0 0,0 0,0 0,0 z"
   id="path2229" />
				</g>
				<path
   class="st0"
   d="m 317.63,442.33 c 0.1,-0.39 0.3,-1.22 -0.27,-1.33 -0.06,-0.01 -0.11,0.01 -0.16,0.04 -0.22,-0.1 -0.41,-0.2 -0.5,-0.42 0,0 0,-0.01 0,-0.02 -0.04,-0.5 0.39,-0.79 0.49,-1.27 0.08,-0.42 -0.06,-0.89 -0.49,-1.04 -0.53,-0.17 -1.02,0.29 -1.23,0.71 -0.23,0.45 -0.27,0.86 -0.17,1.33 0,0.03 0,0.06 -0.01,0.09 0,-0.14 -0.7,0.02 -0.77,0.04 -0.31,0.09 -0.64,0.23 -0.8,0.53 -0.12,0.22 -0.21,0.64 0.01,0.82 0.03,0.05 0.08,0.09 0.13,0.13 -0.01,0.02 -0.01,0.03 -0.02,0.05 -0.04,0.12 -0.04,0.25 0,0.36 0.03,0.08 0.08,0.14 0.14,0.19 0.02,0.03 0.04,0.06 0.06,0.08 0.02,0.06 0.05,0.1 0.09,0.13 -0.23,0.43 0.07,0.81 0.5,0.86 0.23,0.3 0.7,0.24 1.03,0.14 0.29,-0.09 0.62,-0.3 0.83,-0.57 0.63,0.42 0.98,-0.27 1.14,-0.85 z m -3.47,-0.64 c -0.25,-0.02 -0.27,-0.49 -0.09,-0.69 0.16,-0.18 1.14,-0.51 1.32,-0.15 0.21,0.43 -0.77,0.72 -1.03,0.81 -0.08,0.02 -0.15,0.03 -0.2,0.03 z m 0.24,0.79 c -0.12,-0.06 -0.2,-0.19 -0.18,-0.32 0.01,-0.09 0.03,-0.16 0.02,-0.24 0.08,-0.08 0.17,-0.14 0.26,-0.19 0.24,-0.13 0.55,-0.14 0.82,-0.09 0.55,0.11 -0.24,0.54 -0.4,0.62 -0.16,0.08 -0.37,0.12 -0.52,0.22 z m 2.22,0.52 c 0.04,-0.08 0.06,-0.15 0.08,-0.24 0.01,-0.06 -0.05,-0.17 -0.13,-0.13 -0.25,0.13 -0.42,0.38 -0.62,0.58 -0.19,0.18 -0.58,0.37 -0.9,0.36 0.39,-0.17 1.12,-0.94 0.54,-1.24 -0.04,-0.02 -0.08,0.02 -0.07,0.07 0.03,0.13 0.09,0.2 0.01,0.34 -0.1,0.17 -0.28,0.31 -0.43,0.42 -0.15,0.11 -0.34,0.2 -0.53,0.15 -0.32,-0.08 -0.11,-0.36 -0.08,-0.56 0,-0.01 0,-0.02 0,-0.03 0.39,-0.02 0.91,-0.3 1.16,-0.57 0.21,-0.23 0.09,-0.51 -0.13,-0.67 0.16,0.12 0.19,-0.28 0.2,-0.36 0.01,-0.08 0.02,-0.2 0,-0.28 -0.03,-0.12 -0.16,-0.2 -0.2,-0.32 -0.03,-0.09 -0.02,-0.2 -0.02,-0.3 0,-0.18 0,-0.36 0.02,-0.54 0.04,-0.39 0.2,-0.72 0.53,-0.97 0.26,-0.19 0.62,-0.17 0.78,0.2 0.1,0.25 0.02,0.5 -0.11,0.72 -0.14,0.26 -0.38,0.52 -0.4,0.82 -0.04,0.35 0.29,0.76 0.6,0.88 0.05,0.02 0.33,0 0.34,0.01 0.06,0.07 0.11,0.13 0.12,0.25 0.01,0.18 -0.03,0.36 -0.07,0.54 -0.08,0.35 -0.2,1.1 -0.69,0.87 z"
   id="path2233" />
				<path
   class="st0"
   d="m 317.04,441.58 c -0.01,-0.05 -0.06,-0.09 -0.09,-0.04 -0.16,0.23 -0.18,0.53 -0.26,0.79 -0.04,0.12 0.15,0.24 0.2,0.11 0.09,-0.28 0.19,-0.56 0.15,-0.86 z"
   id="path2235" />
			</g>
		</g>
		<g
   id="g2263">
			<path
   class="st3"
   d="m 333.52,430.72 c -0.43,-0.16 -0.58,0.33 -0.18,0.7 0.07,0.07 0.22,-0.05 0.16,-0.14 -0.24,-0.31 0.12,-0.14 0.15,-0.13 0.18,0.1 0.33,0.25 0.47,0.39 0.34,0.32 0.55,0.79 1,0.95 0.1,0.03 0.16,-0.09 0.15,-0.17 -0.06,-0.44 -0.57,-0.79 -0.88,-1.06 -0.26,-0.23 -0.54,-0.41 -0.87,-0.54 z"
   id="path2241" />
			<path
   class="st0"
   d="m 336.39,435.36 c -0.53,-1.51 -1.11,-3.02 -2.41,-3.95 -0.06,-0.08 -0.14,-0.16 -0.2,-0.23 -0.11,-0.13 -0.23,-0.23 -0.41,-0.22 -0.08,0 -0.15,0.1 -0.1,0.17 0.07,0.12 0.17,0.22 0.27,0.32 0.01,0.01 0.02,0.02 0.04,0.03 0.53,0.55 1.03,1.06 1.41,1.77 0.43,0.8 0.75,1.68 1.08,2.53 0.5,1.29 0.83,2.64 1.15,3.99 0.17,1.16 0.44,2.31 0.63,3.47 0.02,0.11 0.21,0.12 0.21,-0.01 -0.04,-0.81 -0.17,-1.62 -0.34,-2.41 -0.06,-0.28 -0.12,-0.57 -0.18,-0.86 -0.23,-1.57 -0.62,-3.11 -1.15,-4.6 z"
   id="path2243" />
			<g
   id="g2261">
				<path
   class="st1"
   d="m 339.68,445.67 c 0,-0.13 -0.06,-0.27 -0.09,-0.38 -0.04,-0.13 -0.2,-0.65 -0.42,-0.79 -0.05,-0.2 -0.15,-0.39 -0.22,-0.58 -0.07,-0.19 -0.18,-0.41 -0.33,-0.58 0.1,-0.1 0.13,-0.25 0,-0.36 -0.15,-0.13 -0.38,-0.08 -0.56,-0.09 -0.22,-0.01 -0.43,-0.01 -0.65,-0.01 -0.15,0 -0.38,0 -0.44,0.18 -0.02,0.06 -0.02,0.2 0.06,0.22 0,0 0,0 0,0 -0.11,0.11 -0.18,0.26 -0.21,0.41 -0.32,0.05 -0.38,0.5 -0.36,0.76 0.03,0.32 0.28,0.8 0.61,0.9 0.01,0 0.03,0 0.04,0.01 0.05,0.21 0.25,0.43 0.36,0.57 0.1,0.13 0.21,0.26 0.33,0.37 0.01,0.01 0.02,0.02 0.03,0.02 v 0 c 0.03,0.26 0.28,0.53 0.53,0.55 0.04,0 0.11,-0.02 0.13,-0.06 0.01,-0.02 0.02,-0.03 0.02,-0.05 0,0 0,-0.01 -0.01,-0.03 0.06,-0.04 0.1,-0.09 0.09,-0.16 0,-0.09 -0.04,-0.18 -0.08,-0.27 0.17,0.14 0.42,0.21 0.57,0 0.06,-0.09 0.06,-0.21 0.04,-0.31 0.04,0.03 0.08,0.06 0.13,0.07 0.02,0.07 0.09,0.12 0.15,0.12 0.14,0.01 0.26,-0.07 0.3,-0.21 0.03,-0.1 0,-0.19 -0.03,-0.28 0.02,0 0.02,-0.01 0.01,-0.02 z"
   id="path2245" />
				<path
   class="st2"
   d="m 339.27,444.82 c 0,0 0,0 0,0 0.01,-0.16 -0.01,-0.29 -0.08,-0.44 -0.04,-0.09 -0.09,-0.19 -0.16,-0.28 -0.12,-0.27 -0.27,-0.52 -0.55,-0.64 0,0 -0.01,0 -0.01,0 0.01,-0.02 0.02,-0.04 0.03,-0.05 0.12,-0.15 -0.15,-0.37 -0.24,-0.21 0.01,-0.01 0.02,-0.02 0.03,-0.03 -0.02,0.01 -0.03,0.02 -0.04,0.04 -0.01,0.02 -0.02,0.04 -0.03,0.06 -0.02,0.06 -0.02,0.13 -0.01,0.19 0.01,0.04 0.02,0.08 0.03,0.12 0.5,0.3 0.87,0.89 1.07,1.43 0,0.01 0.01,0.02 0.01,0.03 0.04,-0.06 0.01,-0.15 -0.03,-0.21 -0.01,0 -0.02,0 -0.02,-0.01 z"
   id="path2247" />
				<path
   class="st2"
   d="m 337.03,443.08 c -0.06,0.05 -0.06,0.14 -0.02,0.2 0.02,0.02 0.04,0.04 0.07,0.05 0.06,0.02 0.13,-0.01 0.19,0.01 0.04,0.01 0.1,-0.03 0.07,-0.07 -0.03,-0.04 -0.07,-0.06 -0.11,-0.08 -0.02,-0.01 -0.04,-0.02 -0.06,-0.03 -0.01,0 -0.01,0 -0.01,-0.01 0,-0.06 -0.06,-0.13 -0.13,-0.07 z"
   id="path2249" />
				<path
   class="st2"
   d="m 338.45,443.03 c -0.05,-0.03 -0.12,-0.03 -0.18,0.03 0.01,0 0.01,0 0.01,0 -0.01,0.01 -0.02,0.01 -0.02,0.02 -0.03,0.04 -0.08,0.05 -0.13,0.07 -0.05,0.02 -0.08,0.06 -0.08,0.11 0,0.04 0.02,0.1 0.07,0.12 v 0 c 0.08,0.02 0.14,0.04 0.21,0.03 0.05,0.09 0.17,0.15 0.23,0.06 0.04,-0.05 0.06,-0.1 0.07,-0.15 0.01,-0.02 0.02,-0.04 0.02,-0.06 0.02,-0.08 -0.02,-0.17 -0.1,-0.21 -0.02,-0.03 -0.06,-0.03 -0.1,-0.02 z"
   id="path2251" />
				<path
   class="st2"
   d="m 337.04,444.84 c -0.07,-0.2 -0.15,-0.39 -0.2,-0.6 -0.01,-0.02 -0.03,-0.04 -0.04,-0.01 -0.12,0.17 -0.08,0.47 -0.05,0.66 0.04,0.25 0.13,0.51 0.39,0.58 0.02,0.01 0.04,0 0.05,-0.03 0.03,-0.18 -0.09,-0.42 -0.15,-0.6 z"
   id="path2253" />
				<path
   class="st2"
   d="m 339.06,446.16 c -0.1,-0.12 -0.24,-0.1 -0.37,-0.18 -0.18,-0.11 -0.26,-0.42 -0.35,-0.61 -0.07,-0.16 -0.21,-0.53 -0.45,-0.48 -0.06,0.01 -0.12,0.07 -0.08,0.13 0.02,0.03 0.04,0.05 0.06,0.08 0,0.01 0.01,0.01 0.01,0.01 0.06,0.12 0.1,0.39 0.12,0.47 0.05,0.16 0.14,0.31 0.22,0.45 0.16,0.27 0.54,0.46 0.81,0.24 0.06,-0.01 0.06,-0.08 0.03,-0.11 z"
   id="path2255" />
				<path
   class="st2"
   d="m 339.46,445.1 c -0.12,-0.27 -0.24,-0.55 -0.45,-0.76 -0.03,-0.03 -0.08,-0.03 -0.09,0.02 -0.03,0.28 0.15,0.56 0.24,0.81 0.04,0.12 0.08,0.24 0.12,0.36 0.01,0.04 0.14,0.41 0.01,0.33 -0.11,-0.06 -0.18,0.07 -0.1,0.15 0.15,0.14 0.53,0.26 0.52,-0.09 0,-0.29 -0.13,-0.57 -0.25,-0.82 z"
   id="path2257" />
				<path
   class="st0"
   d="m 339.51,444.8 c -0.16,-0.48 -0.37,-1.02 -0.73,-1.33 0,0 0.1,-0.19 0.11,-0.22 0.01,-0.09 -0.01,-0.14 -0.07,-0.2 -0.32,-0.33 -0.65,-0.29 -0.97,-0.32 -0.23,-0.02 -0.48,0 -0.69,0.08 -0.17,0.07 -0.3,0.2 -0.31,0.38 0,0.1 0.1,0.14 0.05,0.24 -0.02,0.06 -0.21,0.15 -0.26,0.21 -0.28,0.31 -0.44,0.84 -0.29,1.25 0.17,0.44 0.66,0.63 0.98,0.94 0.01,0.01 0.02,0.03 0.03,0.04 0.18,0.3 0.28,0.66 0.52,0.92 0.25,0.26 0.84,0.37 0.82,-0.18 0,-0.01 0,-0.02 0,-0.02 0.1,0.04 0.21,0.04 0.33,-0.01 0.22,-0.11 0.25,-0.25 0.21,-0.42 0.79,0.44 0.49,-0.68 0.37,-1.03 -0.02,-0.11 -0.06,-0.22 -0.1,-0.33 z m 0.05,0.81 c 0.03,0.14 0.1,0.41 -0.09,0.46 -0.39,0.1 -0.69,-1.53 -0.92,-1.59 -0.03,-0.01 -0.05,-0.04 -0.06,0 -0.02,0.39 0.15,0.8 0.34,1.12 0.11,0.18 0.35,0.41 0.25,0.64 -0.13,0.3 -0.41,0.06 -0.55,-0.11 -0.16,-0.21 -0.3,-0.43 -0.41,-0.67 -0.08,-0.18 -0.12,-0.4 -0.27,-0.54 -0.42,0.43 0.5,1.14 0.62,1.53 0.06,0.2 0.01,0.47 -0.26,0.33 -0.31,-0.17 -0.36,-0.56 -0.54,-0.83 -0.13,-0.2 -0.29,-0.36 -0.4,-0.57 -0.1,-0.19 -0.22,-0.39 -0.28,-0.59 -0.03,-0.09 0.01,-0.73 -0.19,-0.6 0,0.12 0.01,0.24 0.03,0.36 0.05,0.23 0.1,0.45 0.17,0.67 0.04,0.07 0.07,0.13 0.09,0.17 -0.29,-0.24 -0.54,-0.47 -0.56,-0.88 0,-0.03 0,-0.06 0,-0.09 0.01,0 0.01,-0.01 0.01,-0.02 0.05,-0.16 0.12,-0.31 0.22,-0.45 0.07,-0.1 0.16,-0.18 0.25,-0.26 0.08,-0.06 0.18,-0.09 0.25,-0.15 0.21,-0.19 -0.06,-0.35 -0.25,-0.21 -0.12,-0.18 0.1,-0.27 0.23,-0.34 0.17,-0.1 0.45,-0.04 0.64,-0.01 0.22,0.03 0.56,-0.02 0.68,0.17 0.02,0.04 -0.03,0.18 -0.02,0.23 -0.02,-0.09 -0.36,-0.16 -0.43,-0.15 -0.19,0.02 -0.18,0.1 -0.11,0.16 0.18,0.03 0.36,0.11 0.47,0.22 0.05,0.05 0.1,0.1 0.15,0.16 0.51,0.43 0.8,1.21 0.94,1.84 z"
   id="path2259" />
			</g>
		</g>
		<g
   id="g2283">
			<path
   class="st4"
   d="m 329.58,431.93 c -0.13,-0.23 -0.5,-0.54 -0.78,-0.43 -0.1,0.04 -0.17,0.12 -0.17,0.23 0,0.11 0.08,0.22 0.19,0.25 0.04,0.01 0.07,0.01 0.1,0.02 0.04,0.09 0.11,0.18 0.18,0.25 0.05,0.05 0.13,0.11 0.21,0.12 0.23,0.03 0.39,-0.23 0.27,-0.44 z"
   id="path2265" />
			<path
   class="st5"
   d="m 328.97,432.82 c -0.01,-0.2 -0.23,-0.33 -0.36,-0.13 -0.17,0.25 -0.34,0.51 -0.54,0.73 -0.38,0.4 -0.87,0.62 -1.29,0.96 -0.29,0.23 -1.04,0.36 -1.4,0.4 -0.35,0.05 -0.8,-0.1 -1.11,0.08 0,0 -0.01,0.01 -0.02,0.01 -0.03,-0.02 -0.06,-0.03 -0.1,-0.05 -0.08,-0.04 -0.15,0.05 -0.1,0.12 0.04,0.05 0.09,0.11 0.13,0.16 0.03,0.06 0.07,0.11 0.11,0.15 -0.07,0.04 -0.12,0.12 -0.08,0.21 0.44,0.99 1.69,1.87 2.77,1.26 1.28,-0.72 2.06,-2.49 1.99,-3.9 z"
   id="path2267" />
			<path
   class="st4"
   d="m 326.82,437.69 c -0.05,0.09 -0.14,0.18 -0.25,0.16 -0.06,-0.01 -0.36,-0.15 -0.44,-0.07 -0.22,0.22 0.17,0.55 0.36,0.61 0.37,0.11 0.73,-0.09 0.9,-0.42 0.18,-0.35 -0.39,-0.63 -0.57,-0.28 z"
   id="path2269" />
			<g
   id="g2275">
				<path
   class="st0"
   d="m 327.04,437.5 c -0.03,0.01 -0.1,0.05 -0.11,0.05 -0.07,0.05 -0.19,0.1 -0.27,0.12 -0.16,0.04 -0.35,-0.02 -0.49,-0.1 -0.09,-0.05 -0.14,0.05 -0.08,0.12 0.17,0.21 0.36,0.34 0.64,0.31 0.19,-0.02 0.38,-0.15 0.48,-0.31 0.07,-0.12 -0.04,-0.23 -0.17,-0.19 z"
   id="path2271" />
				<path
   class="st0"
   d="m 327.03,437.5 c 0.01,0 0.01,0 0.02,0 0.01,-0.01 0.01,-0.01 -0.02,0 z"
   id="path2273" />
			</g>
			<path
   class="st0"
   d="m 329.17,432.44 c 0,-0.02 -0.02,-0.04 -0.03,-0.05 0.02,-0.06 0.04,-0.12 0.06,-0.17 0.03,-0.1 -0.12,-0.16 -0.19,-0.11 -0.36,0.26 -0.53,0.75 -0.84,1.07 -0.34,0.35 -0.75,0.61 -1.16,0.86 -0.96,0.59 -2.11,0.77 -3.18,0.37 -0.12,-0.04 -0.26,0.14 -0.12,0.21 0.06,0.03 0.13,0.06 0.19,0.09 0,0 0,0 0,0 -0.05,0.07 -0.07,0.17 0,0.23 0,0 0,0 0,0 0,0.02 0,0.03 0,0.05 0.02,0.14 0.13,0.3 0.18,0.42 0.21,0.43 0.53,0.83 0.86,1.17 0.57,0.62 1.31,0.78 2.07,0.41 1.39,-0.67 2.3,-2.61 2.16,-4.55 z m -1.05,3.17 c -0.33,0.46 -0.75,0.85 -1.21,1.13 -1.04,0.62 -2.57,-0.73 -2.63,-1.76 0,-0.05 -0.01,-0.1 -0.03,-0.15 0.85,0.14 1.64,0.15 2.52,-0.27 0.85,-0.41 1.55,-1.08 2.12,-1.82 -0.03,0.21 0.02,0.42 0.03,0.63 0.01,0.36 -0.06,0.75 -0.18,1.09 -0.14,0.4 -0.36,0.79 -0.62,1.15 z"
   id="path2277" />
			<path
   class="st0"
   d="m 329.6,431.88 c -0.1,-0.25 -0.38,-0.42 -0.65,-0.38 -0.09,0.01 -0.2,0.14 -0.09,0.22 0.15,0.1 0.32,0.19 0.41,0.36 0.11,0.22 0.41,0 0.33,-0.2 z"
   id="path2279" />
			<path
   class="st0"
   d="m 327.39,435.05 c -0.31,0.22 -0.59,0.44 -0.96,0.55 -0.45,0.13 -0.91,0.11 -1.36,0 -0.04,-0.01 -0.05,0.06 -0.01,0.07 0.44,0.19 0.79,0.28 1.29,0.21 0.46,-0.06 0.99,-0.3 1.21,-0.74 0.02,-0.07 -0.11,-0.13 -0.17,-0.09 z"
   id="path2281" />
		</g>
		<g
   id="g2317">
			<path
   class="st4"
   d="m 323.77,430.97 c 0,-0.03 0.01,-0.06 0.01,-0.09 0.07,-0.42 -0.11,-0.86 -0.38,-1.17 -0.4,-0.46 -0.93,-0.63 -1.51,-0.53 -0.06,0.01 -0.03,0.1 0.02,0.1 0.49,0.02 0.83,0.12 1.19,0.49 0.18,0.18 0.3,0.41 0.35,0.65 -0.06,0.18 0.04,0.42 0.03,0.61 -0.01,0.18 -0.07,0.37 -0.19,0.51 -0.05,0.05 0.02,0.15 0.09,0.11 0.26,-0.13 0.36,-0.39 0.39,-0.68 z"
   id="path2285" />
			<path
   class="st4"
   d="m 329.13,428.94 c -0.06,-0.14 -0.25,-0.03 -0.27,0.08 -0.06,0.35 -0.1,0.71 -0.26,1.03 -0.23,0.47 -0.79,0.5 -1.25,0.5 -1.19,0.01 -0.82,-1.56 -0.75,-2.28 0.01,-0.05 -0.07,-0.1 -0.11,-0.05 -0.38,0.39 -0.45,1.13 -0.4,1.65 0.06,0.58 0.42,1.06 1.01,1.15 0.58,0.09 1.24,0.02 1.71,-0.36 0.48,-0.39 0.53,-1.2 0.32,-1.72 z"
   id="path2287" />
			<path
   class="st4"
   d="m 322.13,428.17 c 0.16,-0.19 -0.07,-0.46 -0.28,-0.43 -0.3,0.04 -0.53,0.22 -0.7,0.45 0.08,0.09 0.15,0.18 0.21,0.28 0.1,-0.02 0.21,-0.06 0.3,-0.09 0.18,-0.05 0.34,-0.06 0.47,-0.21 z"
   id="path2289" />
			<path
   class="st4"
   d="m 326.18,425.94 c 0,0 0,0 0,0 -0.09,-0.01 -0.17,-0.03 -0.26,-0.05 -0.12,-0.03 -0.14,0.11 -0.04,0.15 0.02,0.01 0.04,0.03 0.06,0.04 0.02,0.03 0.04,0.05 0.07,0.05 0.02,0 0.04,0.01 0.06,0.01 0.03,0.01 0.06,0.01 0.1,0.02 0.26,0.05 0.52,0.09 0.78,0.14 0.34,0.06 0.66,0.19 1.01,0.13 0.09,-0.02 0.18,-0.08 0.21,-0.17 0.18,-0.68 -1.4,-0.4 -1.99,-0.32 z"
   id="path2291" />
			<path
   class="st5"
   d="m 328.95,428.8 c -0.04,-0.3 -0.14,-0.46 -0.28,-0.54 0,-0.01 -0.01,-0.01 -0.01,-0.02 -0.01,-0.04 -0.03,-0.08 -0.05,-0.11 -0.04,-0.05 -0.11,-0.13 -0.18,-0.13 -0.05,0 -0.09,0.03 -0.09,0.08 0,0.01 0,0.02 0.01,0.03 -0.03,0.01 -0.05,0.03 -0.08,0.05 -0.01,0 -0.01,-0.01 -0.02,-0.01 -0.11,-0.03 -0.23,-0.02 -0.34,0.01 -0.35,0.02 -0.7,0.19 -0.97,0.38 -0.19,0.13 -0.3,0.39 -0.31,0.64 -0.17,0.28 -0.1,0.54 0.07,0.83 0.04,0.07 0.09,0.1 0.15,0.12 0.04,0.07 0.12,0.13 0.2,0.17 0.11,0.1 0.26,0.14 0.39,0.1 0.36,0.09 0.9,0.04 1.09,-0.3 0.02,-0.03 0.02,-0.05 0.03,-0.08 0.28,-0.3 0.45,-0.8 0.39,-1.22 z"
   id="path2293" />
			<path
   class="st5"
   d="m 323.12,430.11 c 0,0 0,0 0,0 0.06,-0.24 -0.14,-0.38 -0.34,-0.45 -0.29,-0.11 -0.62,0.02 -0.87,0.16 -0.49,0.27 -1.32,1.07 -1.08,1.68 0.01,0.02 0.03,0.04 0.05,0.06 0,0.02 0.01,0.04 0.01,0.07 0.1,0.33 0.46,0.5 0.77,0.56 0.12,0.02 0.22,0.02 0.32,-0.01 0.06,0.03 0.13,0.04 0.2,0.01 0.05,-0.02 0.1,-0.04 0.15,-0.07 0.01,0 0.02,-0.01 0.03,-0.01 0.56,-0.26 0.97,-0.65 0.98,-1.33 0,-0.27 -0.08,-0.51 -0.22,-0.67 z"
   id="path2295" />
			<path
   class="st6"
   d="m 321.7,429.93 c 0.27,-0.18 0.57,-0.35 0.89,-0.48 -0.31,-0.09 -0.62,-0.11 -0.92,0.01 -0.14,0.06 -0.31,0.15 -0.29,0.3 -0.06,0.06 -0.11,0.12 -0.14,0.16 -0.12,0.18 -0.25,0.44 -0.32,0.69 0.23,-0.27 0.52,-0.5 0.78,-0.68 z"
   id="path2297" />
			<path
   class="st6"
   d="m 328.43,427.95 c 0,0 0,-0.01 0,0 -0.08,-0.06 -0.16,-0.1 -0.24,-0.14 -0.01,0 -0.01,-0.01 -0.01,-0.01 -0.14,-0.08 -0.32,-0.11 -0.48,-0.14 -0.08,-0.01 -0.15,0.04 -0.22,0.07 -0.04,0 -0.07,0.01 -0.1,0.01 -0.01,0 -0.02,0 -0.03,-0.01 -0.05,-0.02 -0.11,0.01 -0.11,0.06 -0.16,0.09 -0.28,0.25 -0.38,0.42 -0.11,0.18 -0.21,0.38 -0.26,0.59 0.47,-0.47 1.17,-0.78 1.83,-0.85 z"
   id="path2299" />
			<path
   class="st0"
   d="m 323.52,431.09 c 0,-0.04 0.01,-0.08 0.01,-0.12 0,-0.58 -0.21,-1.19 -0.75,-1.49 -0.01,-0.01 -0.01,-0.01 -0.02,-0.01 -0.02,-0.01 -0.03,-0.01 -0.05,-0.02 -0.03,-0.01 -0.05,-0.02 -0.08,-0.03 -0.42,-0.16 -0.93,-0.3 -1.29,0.06 -0.52,0.53 -0.79,1.36 -0.62,2.08 0.15,0.66 0.83,0.97 1.44,0.91 0.65,-0.07 1.29,-0.73 1.36,-1.38 z m -2.26,0.69 c -0.41,-0.39 -0.32,-0.97 -0.16,-1.44 0.07,-0.22 0.2,-0.45 0.33,-0.64 0.22,-0.3 0.65,-0.33 0.97,-0.23 0.38,0.11 0.64,0.47 0.76,0.83 0.14,0.4 0.11,1.09 -0.24,1.4 -0.45,0.43 -1.13,0.59 -1.66,0.08 z"
   id="path2301" />
			<path
   class="st0"
   d="m 329.15,429.4 c 0.01,-0.06 0.01,-0.12 0.01,-0.17 -0.03,-0.84 -0.58,-1.64 -1.49,-1.67 -0.21,-0.01 -0.54,0.08 -0.69,0.23 -0.52,0.53 -0.79,1.36 -0.62,2.08 0.15,0.66 0.83,0.97 1.44,0.91 0.64,-0.07 1.27,-0.72 1.35,-1.38 z m -2.26,0.7 c -0.41,-0.39 -0.32,-0.97 -0.16,-1.44 0.08,-0.22 0.2,-0.46 0.33,-0.64 0.35,-0.49 1.08,-0.26 1.43,0.09 0.13,0.13 0.23,0.29 0.29,0.46 0.12,0.32 0.13,0.71 0.02,1.04 -0.26,0.77 -1.31,1.07 -1.91,0.49 z"
   id="path2303" />
			<path
   class="st0"
   d="m 322.07,427.67 c -0.02,-0.03 -0.05,-0.07 -0.07,-0.1 -0.04,-0.06 -0.12,-0.07 -0.18,-0.07 -0.32,0.03 -0.63,0.32 -0.87,0.51 -0.34,0.27 -0.55,0.56 -0.76,0.93 -0.03,0.05 0.06,0.11 0.1,0.07 0.25,-0.28 0.49,-0.52 0.81,-0.72 0.29,-0.19 0.69,-0.25 0.95,-0.48 0.04,-0.03 0.05,-0.09 0.02,-0.14 z"
   id="path2305" />
			<path
   class="st0"
   d="m 328.03,425.94 c -0.06,-0.4 -0.5,-0.49 -0.83,-0.51 -0.5,-0.02 -0.86,0.24 -1.32,0.36 -0.08,0.02 -0.02,0.12 0.04,0.13 0.33,0.03 0.64,-0.07 0.96,-0.04 0.21,0.02 0.43,0.05 0.63,0.14 0.15,0.07 0.23,0.15 0.39,0.1 0.08,-0.01 0.14,-0.1 0.13,-0.18 z"
   id="path2307" />
			<path
   class="st0"
   d="m 322.6,430.72 c -0.02,-0.04 -0.04,-0.07 -0.08,-0.1 -0.02,-0.03 -0.05,-0.07 -0.09,-0.09 -0.14,-0.09 -0.33,0.02 -0.38,0.17 -0.05,0.16 -0.01,0.38 0.17,0.45 0.15,0.06 0.29,-0.06 0.35,-0.19 0.03,-0.07 0.06,-0.15 0.03,-0.24 z"
   id="path2309" />
			<path
   class="st0"
   d="m 328.11,429.05 c -0.02,-0.07 -0.07,-0.12 -0.13,-0.16 -0.04,-0.05 -0.11,-0.09 -0.18,-0.09 -0.13,0 -0.25,0.11 -0.27,0.23 -0.02,0.1 0.05,0.21 0.13,0.26 0.18,0.15 0.51,0.01 0.45,-0.24 z"
   id="path2311" />
			<path
   class="st0"
   d="m 328.39,427.83 c -0.82,0.01 -1.63,0.38 -2.04,1.19 -0.02,0.04 0.03,0.1 0.06,0.07 0.25,-0.16 0.43,-0.4 0.69,-0.56 0.4,-0.26 0.81,-0.3 1.26,-0.34 0.19,-0.02 0.23,-0.37 0.03,-0.36 z"
   id="path2313" />
			<path
   class="st0"
   d="m 322.91,429.62 c -0.21,-0.31 -0.77,-0.04 -1.02,0.1 -0.47,0.25 -1.03,0.78 -1.19,1.31 -0.01,0.04 0.05,0.09 0.08,0.05 0.44,-0.75 1.24,-1.37 2.1,-1.38 0.04,0 0.05,-0.05 0.03,-0.08 z"
   id="path2315" />
		</g>
	</g>
</switch>

</svg>
